{
  "project_info": {
    "project_number": "499633597110",
    "firebase_url": "https://epitechflutterproject.firebaseio.com",
    "project_id": "epitechflutterproject",
    "storage_bucket": "epitechflutterproject.appspot.com"
  },
  "client": [
    {
      "client_info": {
        "mobilesdk_app_id": "1:499633597110:android:d6d564b6a3ae8fac731417",
        "android_client_info": {
          "package_name": "com.example.flutter_app"
        }
      },
      "oauth_client": [
        {
          "client_id": "499633597110-41ot8pdnkalmjtubesc9d0si52sgbp61.apps.googleusercontent.com",
          "client_type": 3
        }
      ],
      "api_key": [
        {
          "current_key": "AIzaSyAxPaS64E0kwYEytTFKZg3AYJ-1iimymh4"
        }
      ],
      "services": {
        "appinvite_service": {
          "other_platform_oauth_client": [
            {
              "client_id": "499633597110-41ot8pdnkalmjtubesc9d0si52sgbp61.apps.googleusercontent.com",
              "client_type": 3
            }
          ]
        }
      }
    }
  ],
  "configuration_version": "1"
}